ov5640_udp_pc_7020/.Xil/Vivado-17712-TX/hw_ila_data_1/zip_work/waveform.vcd
$date
        2022-Dec-26 17:06:01
$end
$version
        Vivado v2020.2 (64-bit)
$end
$timescale
        1ps
$end
$scope module dut $end
$var reg 5 " u_eth_top/u_arp/u_arp_rx/cur_state [4:0] $end
$var reg 32 ' u_eth_top/u_arp/u_arp_rx/des_ip_t [31:0] $end
$var reg 48 G u_eth_top/u_arp/u_arp_rx/des_mac_t [47:0] $end
$var reg 16 w u_eth_top/u_arp/u_arp_rx/op_data [15:0] $end
$var reg 16 )" u_eth_top/u_arp/u_arp_rx/eth_type [15:0] $end
$var reg 5 9" u_eth_top/u_arp/u_arp_rx/cnt [4:0] $end
$var reg 32 >" u_eth_top/u_arp/u_arp_rx/src_ip [31:0] $end
$var reg 48 ^" u_eth_top/u_arp/u_arp_rx/src_mac_t [47:0] $end
$var reg 8 0# u_eth_top/u_arp/gmii_txd [7:0] $end
$var reg 32 8# u_eth_top/u_arp/u_arp_rx/src_ip_t [31:0] $end
$var reg 32 X# u_eth_top/u_udp/u_udp_rx/des_ip [31:0] $end
$var reg 32 x# u_eth_top/u_udp/u_udp_rx/rec_data [31:0] $end
$var reg 7 :$ u_eth_top/u_udp/u_udp_rx/cur_state [6:0] $end
$var reg 8 A$ u_eth_top/u_udp/u_udp_rx/gmii_rxd [7:0] $end
$var reg 16 I$ u_eth_top/u_udp/u_udp_rx/data_byte_num [15:0] $end
$var reg 1 Y$ u_eth_top/u_arp/u_arp_rx/arp_rx_done $end
$var reg 1 Z$ u_eth_top/u_arp/arp_tx_en $end
$var reg 1 [$ u_eth_top/u_arp/u_arp_rx/error_en $end
$var reg 1 \$ u_eth_top/u_udp/u_udp_rx/error_en $end
$var reg 1 ]$ u_eth_top/u_udp/u_udp_rx/gmii_rx_dv $end
$var reg 1 ^$ u_eth_top/u_eth_ctrl/protocol_sw $end
$var reg 1 _$ u_eth_top/u_udp/u_udp_rx/rec_en $end
$var reg 1 `$ u_eth_top/u_udp/u_udp_rx/rec_pkt_done $end
$var reg 1 a$ u_eth_top/u_arp/u_arp_rx/skip_en $end
$var reg 1 b$ u_eth_top/u_udp/u_udp_rx/skip_en $end
$var reg 1 c$ u_eth_top/u_arp/u_arp_tx/tx_done $end
$var reg 1 d$ _TRIGGER $end
$var reg 1 e$ _WINDOW $end
$var reg 1 f$ _GAP $end
$upscope $end
$enddefinitions $end
#0
$dumpvars
b1 "
b11000000101010000000000100000001 '
b111111111111111111111111111111111111111111111111 G
b1 w
b100000000110 )"
b0 9"
b11000000101010000000000101001101 >"
b11101001000011011100010000011100110011000111011 ^"
b1011011 0#
b11000000101010000000000101001101 8#
b11000000101010000000000100001010 X#
b110000000000000000000000000000 x#
b1 :$
b0 A$
b1 I$
0Y$
0Z$
0[$
0\$
0]$
1^$
0_$
0`$
0a$
0b$
0c$
0d$
1e$
0f$
$end
#974
b1010101 A$
1]$
#975
1a$
1b$
#976
b10 "
b1 9"
b10 :$
0a$
0b$
#977
b10 9"
#978
b11 9"
#979
b100 9"
#980
b101 9"
#981
b110 9"
b11010101 A$
#982
b0 9"
b0 A$
1a$
1b$
#983
b100 "
b111111111111111111111111111111111111111100000000 G
b1 9"
b100 :$
b10001 A$
0a$
0b$
#984
b111111111111111111111111111111110000000000010001 G
b10 9"
b100010 A$
#985
b111111111111111111111111000000000001000100100010 G
b11 9"
b110011 A$
#986
b111111111111111100000000000100010010001000110011 G
b100 9"
b1000100 A$
#987
b111111110000000000010001001000100011001101000100 G
b101 9"
b1010101 A$
#988
b1000100100010001100110100010001010101 G
b110 9"
b1110100 A$
#989
b111 9"
b10000110 A$
#990
b1000 9"
b11100010 A$
#991
b1001 9"
b1110 A$
#992
b1010 9"
b1100110 A$
#993
b1011 9"
b111011 A$
#994
b1100 9"
b1000 A$
#995
b1101 9"
b110 A$
#996
b0 9"
b0 A$
1\$
1a$
#997
b1000 "
b1 9"
b1000000 :$
b1 A$
0\$
0a$
#998
b10 9"
b1000 A$
#999
b11 9"
b0 A$
#1000
b100 9"
b110 A$
#1001
b101 9"
b100 A$
#1002
b110 9"
b0 A$
#1003
b111 9"
b1 A$
#1004
b1000 9"
b1110100 A$
#1005
b1001 9"
b100001101110001000001110011001100011101101110100 ^"
b10000110 A$
#1006
b1010 9"
b111000100000111001100110001110110111010010000110 ^"
b11100010 A$
#1007
b1011 9"
b11100110011000111011011101001000011011100010 ^"
b1110 A$
#1008
b1100 9"
b11001100011101101110100100001101110001000001110 ^"
b1100110 A$
#1009
b1101 9"
b1110110111010010000110111000100000111001100110 ^"
b111011 A$
#1010
b1110 9"
b11101001000011011100010000011100110011000111011 ^"
b11000000 A$
#1011
b1111 9"
b10101000000000010100110111000000 8#
b10101000 A$
#1012
b10000 9"
b1010011011100000010101000 8#
b1 A$
#1013
b10001 9"
b1001101110000001010100000000001 8#
b1001101 A$
#1014
b10010 9"
b11000000101010000000000101001101 8#
b0 A$
#1015
b10011 9"
b10001 A$
#1016
b10100 9"
b100010 A$
#1017
b10101 9"
b110011 A$
#1018
b10110 9"
b1000100 A$
#1019
b10111 9"
b1010101 A$
#1020
b11000 9"
b11000000 A$
#1021
b10101000000000010000000111000000 '
b11001 9"
b10101000 A$
#1022
b1000000011100000010101000 '
b11010 9"
b1 A$
#1023
b1110000001010100000000001 '
b11011 9"
b1010 A$
#1024
b11000000101010000000000100001010 '
b11100 9"
b0 A$
1d$
#1025
b0 '
b0 G
b0 9"
b0 ^"
b0 8#
1Y$
1Z$
1a$
#1026
b10000 "
0Y$
0Z$
0^$
0a$
#1028
b1010101 0#
#1035
b11010101 0#
#1036
b1110100 0#
#1037
b10000110 0#
#1038
b11100010 0#
#1039
b1110 0#
#1040
b1100110 0#
#1041
b111011 0#
#1042
b0 0#
b10110000 A$
#1043
b10001 0#
b10110111 A$
#1044
b100010 0#
b1101011 A$
#1045
b110011 0#
b1010001 A$
#1046
b1000100 0#
b0 A$
0]$
#1047
b1010101 0#
1a$
1b$
#1048
b1 "
b1000 0#
b1 :$
0a$
0b$
#1049
b110 0#
#1050
b0 0#
#1051
b1 0#
#1052
b1000 0#
#1053
b0 0#
#1054
b110 0#
#1055
b100 0#
#1056
b0 0#
#1057
b10 0#
#1058
b0 0#
#1059
b10001 0#
#1060
b100010 0#
#1061
b110011 0#
#1062
b1000100 0#
#1063
b1010101 0#
#1064
b11000000 0#
#1065
b10101000 0#
#1066
b1 0#
#1067
b1010 0#
#1068
b1110100 0#
#1069
b10000110 0#
#1070
b11100010 0#
#1071
b1110 0#
#1072
b1100110 0#
#1073
b111011 0#
#1074
b11000000 0#
#1075
b10101000 0#
#1076
b1 0#
#1077
b1001101 0#
#1078
b0 0#
#1096
b11001011 0#
#1097
b10011100 0#
#1098
b11000110 0#
#1099
b1011011 0#
#1100
1c$
#1101
1^$
0c$
